…
    # Extract club name
    city_string <- pep_club_history[row, 1] %>% 
      str_remove(pattern = " ")
    
    base_api <- "http://api.clubelo.com/"
    
    # Paste base url and club name together
    city <- str_c(base_api, city_string)
    
    city_elo <- read_csv(city)
    
    city_elo
    ## A tibble: 5,723 x 7
    #   Rank  Club     Country Level   Elo From       To        
    #   <chr> <chr>    <chr>   <int> <dbl> <date>     <date>    
    # 1 None  Man City ENG         2 1365. 1946-07-07 1946-09-04
    # 2 None  Man City ENG         2 1372. 1946-09-05 1946-09-07
    # 3 None  Man City ENG         2 1370. 1946-09-08 1946-09-14
    # 4 None  Man City ENG         2 1384. 1946-09-15 1946-09-18
    # 5 None  Man City ENG         2 1386. 1946-09-19 1946-09-21
    # 6 None  Man City ENG         2 1398. 1946-09-22 1946-09-28
    # 7 None  Man City ENG         2 1400. 1946-09-29 1946-09-29
    # 8 None  Man City ENG         2 1417. 1946-09-30 1946-10-03
    # 9 None  Man City ENG         2 1423. 1946-10-04 1946-10-05
    #10 None  Man City ENG         2 1417. 1946-10-06 1946-10-12
    ## … with 5,713 more rows
…
