…
(pdga_2019_top_100 <- str_c(base_2019, 0:4) %>% 
  map_df(~ scrape_page(url = .)))
{% endhighlight %}



{% highlight text %}
## # A tibble: 100 x 12
##    Name  `PDGA #` Rating  Year Gender Class Division Country `State/Province` Events
##    <chr>    <int>  <int> <int> <chr>  <chr> <chr>    <chr>   <chr>             <int>
##  1 P. M…    27523   1060  2019 Male   Pro   Open     United… California           23
##  2 R. W…    38008   1049  2019 Male   Pro   Open     United… South Carolina       22
##  3 E. M…    37817   1049  2019 Male   Pro   Open     United… Colorado             27
##  4 J. C…    17295   1037  2019 Male   Pro   Open     United… Virginia             27
##  5 C. H…    45971   1041  2019 Male   Pro   Open     United… Florida              30
##  6 C. D…    62467   1041  2019 Male   Pro   Open     United… Tennessee            44
##  7 P. P…    29190    979  2019 Female Pro   Open Wo… United… Texas                26
##  8 G. G…    13864   1030  2019 Male   Pro   Open     United… Florida              35
##  9 K. J…    41760   1037  2019 Male   Pro   Open     United… Arkansas             29
## 10 C. A…    44184    977  2019 Female Pro   Open Wo… United… Minnesota            27
## # … with 90 more rows, and 2 more variables: Points <int>, Cash <chr>
…
